\beamer@sectionintoc {1}{Übersicht}{3}{0}{1}
\beamer@sectionintoc {2}{Verwendung}{7}{0}{2}
\beamer@sectionintoc {3}{Das Jobsystem}{10}{0}{3}
\beamer@subsectionintoc {3}{1}{Backtracking}{15}{0}{3}
\beamer@subsectionintoc {3}{2}{Logische Programmierung}{16}{0}{3}
\beamer@sectionintoc {4}{Fragen}{17}{0}{4}
